﻿# Anbennar : updating age constraints to scale for races

starting_prestige = {
	value = {
		# Longer-lived characters start with some inherent prestige.
		add =	{
			value = medium_prestige_value
			multiply = {
				value = 0

				# Bonus for older characters (who have presumably accomplished more).
				if = {
					limit = { age > 12}
					add = 1
				}
				else_if = {
					limit = {
						# age > 24
						age > root.age_24_racial_equivalent # Anbennar
					}
					add = 2
				}
				else_if = {
					limit = {
						# age > 36
						age > root.age_36_racial_equivalent # Anbennar
					}
					add = 3
				}
				else_if = {
					limit = {
						# age > 48
						age > root.age_48_racial_equivalent # Anbennar
					}
					add = 4
				}
				else_if = {
					limit = {
						# age > 60
						age > root.age_60_racial_equivalent # Anbennar
					}
					add = 5
				}

				# Bonus/penalty for traits.
				if = {
					limit = {
						OR = {
							has_trait = arrogant
							has_trait = ambitious
						}
					}
					add = 1
				}
				else_if = {
					limit = {
						OR = {
							has_trait = humble
							has_trait = content
						}
					}
					add = -1
				}

				# Humble/content children shouldn't have a prestige penalty!
				min = 0
			}
		}

		# Rulers also gain bonus prestige based on their tier.
		add = {
			value = medium_prestige_value
			multiply = highest_held_title_tier
		}
	}
}

starting_piety = {
	value = {
		# All characters start with some about of piety based on how long they have lived a virtuous life.
		add = {
			value = medium_piety_value
			multiply = {
				add = num_virtuous_traits
				subtract = num_sinful_traits
				if = {
					limit = { has_trait = zealous }
					add = 1
				}
				else_if = {
					limit = { has_trait = cynical }
					add = -1
				}
			}
			multiply = {
				value = 0
				if = {
					limit = { age > 12}
					add = 1
				}
				else_if = {
					limit = {
						# age > 24
						age > root.age_24_racial_equivalent # Anbennar
					}
					add = 2
				}
				else_if = {
					limit = {
						# age > 36
						age > root.age_36_racial_equivalent # Anbennar
					}
					add = 3
				}
				else_if = {
					limit = {
						# age > 48
						age > root.age_48_racial_equivalent # Anbennar
					}
					add = 4
				}
				else_if = {
					limit = {
						# age > 60
						age > root.age_60_racial_equivalent # Anbennar
					}
					add = 5
				}
			}
		}

		# Rulers also gain some Piety based on tier (but less than piety than prestige).
		add = {
			value = minor_piety_value
			multiply = highest_held_title_tier
		}

		# Nobody starts with negative piety, not even even sinful characters.
		min = minor_piety_value
	}
}
