563 = {

    # Misc
    culture = brasanni
    religion = cult_of_the_dame

    # History
}

564 = {

    # Misc
    culture = brasanni
    religion = cult_of_the_dame

    # History
}

565 = {

    # Misc
    culture = brasanni
    religion = cult_of_the_dame

    # History
}

568 = {

    # Misc
    culture = brasanni
    religion = cult_of_the_dame

    # History
}

570 = {

    # Misc
    culture = brasanni
    religion = cult_of_the_dame

    # History
}

584 = {

    # Misc
    culture = brasanni
    religion = cult_of_the_dame

    # History
}

561 = {

    # Misc
    culture = brasanni
    religion = cult_of_the_dame

    # History
}

562 = {

    # Misc
    culture = brasanni
    religion = cult_of_the_dame

    # History
}

567 = {

    # Misc
    culture = brasanni
    religion = cult_of_the_dame

    # History
}

572 = {

    # Misc
    culture = brasanni
    religion = cult_of_the_dame

    # History
}