629 = {

    # Misc
    culture = zanite
    religion = cult_of_the_dame

    # History
}

630 = {

    # Misc
    culture = zanite
    religion = cult_of_the_dame

    # History
}

632 = {

    # Misc
    culture = zanite
    religion = cult_of_the_dame

    # History
}

633 = {

    # Misc
    culture = zanite
    religion = cult_of_the_dame

    # History
}