﻿
special_genes = {


	accessory_genes = {


	#####################################
	#									#
	# 			   HAIR 			    #
	#									#
	#####################################


		hairstyles = {
			group = hair

			#Anbennar - anbennar indexes start a 800. why? because most mods will probably use 100, 1000 or 9999. 800 is DAMERIA cos there's 8 lunar phases. This is also at the top to make patching easier
			pearlsedger_hairstyles = {
				index = 200
				male = {
					1 = bald
					1 = male_hair_western_04
					1 = male_hair_western_03
				}
				female = {
					1 = female_hair_northern_01
					1 = female_hair_northern_02
					1 = female_hair_northern_03
	
					1 = female_hair_western_01
					1 = female_hair_western_02
					1 = female_hair_western_03
					1 = female_hair_western_04
					1 = female_hair_western_05
					1 = female_hair_western_08
	
					1 = female_hair_byzantine_01
				}
				boy = male
				girl = female
			}
			
			dwarven_hairstyles = {
				index = 201
				male = {
					1 = male_hair_rtt_01
					1 = male_hair_western_02
					1 = male_hair_western_04
					1 = male_hair_western_05
					1 = male_hair_western_09
					1 = male_hair_mena_04
					1 = male_hair_indian_03
					1 = male_hair_northern_01
					1 = male_hair_northern_02
					1 = male_hair_northern_03
				}
				female = {
					1 = female_hair_western_01
					1 = female_hair_western_02
					1 = female_hair_western_03
					1 = female_hair_rtt_01
					1 = female_hair_rtt_02
					1 = female_hair_northern_01
					1 = female_hair_northern_02
					1 = female_hair_northern_03
				}
				boy = male
				girl = female
			}
			
			gnome_hairstyles = {
				index = 202
				male = {
					1 = male_hair_indian_01
					1 = male_hair_indian_02
					1 = male_hair_indian_03
					1 = male_hair_byzantine_02
					1 = male_hair_western_01
				}
				female = {
					1 = female_hair_steppe_01
					1 = female_hair_northern_01
					1 = female_hair_northern_02
					1 = female_hair_northern_03
					1 = female_hair_rtt_02
				}
				boy = male
				girl = female
			}
			
			kheteratan_hairstyles_straight = {
				index = 203
				male = {
					2 = bald
					5 = male_hair_sub_saharan_01
					5 = male_hair_sub_saharan_03
					3 = male_hair_mena_01
					3 = male_hair_mena_02
					3 = male_hair_mena_03
				}
				
				female = {
					5 = female_hair_sub_saharan_03
					1 = female_hair_custom_06
					5 = female_hair_mena_01
					5 = female_hair_mena_02
					2 = female_hair_rtt_02
					2 = female_hair_custom_03	#fyi these are unique anbennar hairs!
					2 = female_hair_custom_04
					2 = female_hair_custom_05
				}
				boy = male
				girl = female
			}

			kheteratan_hairstyles_wavy = {
				index = 204
				male = {
					2 = bald
					5 = male_hair_sub_saharan_01
					5 = male_hair_sub_saharan_03
					3 = male_hair_mena_01
					3 = male_hair_mena_02
					3 = male_hair_mena_03
				}
				
				female = {
					5 = female_hair_sub_saharan_03
					1 = female_hair_custom_06
					5 = female_hair_mena_01
					5 = female_hair_mena_02
					2 = female_hair_rtt_02
					2 = female_hair_custom_03
					2 = female_hair_custom_04
					2 = female_hair_custom_05
				}
				boy = male
				girl = female
			}

			kheteratan_hairstyles_curly = {
				index = 205
				male = {
					2 = bald
					5 = male_hair_sub_saharan_01
					5 = male_hair_sub_saharan_03
					3 = male_hair_mena_01
					3 = male_hair_mena_02
					3 = male_hair_mena_03
				}
				
				female = {
					5 = female_hair_sub_saharan_03
					1 = female_hair_custom_06
					5 = female_hair_mena_01
					5 = female_hair_mena_02
					2 = female_hair_rtt_02
					2 = female_hair_custom_03
					2 = female_hair_custom_04
					2 = female_hair_custom_05
				}
				boy = male
				girl = female
			}

			kheteratan_hairstyles_afro = {
				index = 206
				male = {
					2 = bald
					5 = male_hair_sub_saharan_01
					5 = male_hair_sub_saharan_03
					3 = male_hair_mena_01
					3 = male_hair_mena_02
					3 = male_hair_mena_03
				}
				
				female = {
					5 = female_hair_sub_saharan_03
					1 = female_hair_custom_06
					5 = female_hair_mena_01
					5 = female_hair_mena_02
					2 = female_hair_rtt_02
					2 = female_hair_custom_03
					2 = female_hair_custom_04
					2 = female_hair_custom_05
				}
				boy = male
				girl = female
			}
			
			all_hairstyles = {
				index = 0
				male = {
					#weight = <object in gfx/portrait/accessories/>
					1 = male_hair_western_01
					1 = male_hair_western_02
					1 = male_hair_western_03
					1 = male_hair_western_04
					1 = male_hair_western_05
					1 = male_hair_western_06
					1 = male_hair_western_07
					1 = male_hair_western_08
					1 = male_hair_western_09
					1 = male_hair_western_10
					1 = male_hair_mena_01
					1 = male_hair_mena_02
					1 = male_hair_mena_03
					1 = male_hair_mena_04
					1 = male_hair_byzantine_01
					1 = male_hair_byzantine_02
					1 = male_hair_sub_saharan_01
					1 = male_hair_sub_saharan_02
					1 = male_hair_sub_saharan_03
					1 = male_hair_rtt_01
					1 = male_hair_rtt_02
					1 = male_hair_indian_01
					1 = male_hair_indian_02
					1 = male_hair_indian_03
					1 = male_hair_northern_01
					1 = male_hair_northern_02
					1 = male_hair_northern_03
					1 = male_hair_steppe_01
					1 = male_hair_steppe_02
					1 = male_hair_fp1_08
				}

				female = {
					1 = female_hair_western_01
					1 = female_hair_western_02
					1 = female_hair_western_03
					1 = female_hair_western_04
					1 = female_hair_western_05
					1 = female_hair_western_06
					1 = female_hair_western_07
					1 = female_hair_western_08
					1 = female_hair_western_09
					1 = female_hair_western_10
					1 = female_hair_mena_01
					1 = female_hair_mena_02
					1 = female_hair_byzantine_01
					1 = female_hair_byzantine_02
					1 = female_hair_sub_saharan_01
	                1 = female_hair_sub_saharan_02
	                1 = female_hair_sub_saharan_03
					1 = female_hair_rtt_01
					1 = female_hair_rtt_02
					1 = female_hair_rtt_02_milla
					1 = female_hair_indian_01
					1 = female_hair_indian_02
					1 = female_hair_indian_03
					1 = female_hair_northern_01
					1 = female_hair_northern_02
					1 = female_hair_northern_03
					1 = female_hair_steppe_01
					1 = female_hair_steppe_02
				}
				boy = male
				girl = female
			}

			legacy_dna_hairstyles = {
				index = 100
				male = {
					#weight = <object in gfx/portrait/accessories/>
					1 = male_hair_western_01
					1 = male_hair_western_02
					1 = male_hair_western_03
					1 = male_hair_western_04
					1 = male_hair_western_05
					1 = male_hair_western_06
					1 = male_hair_western_07
					1 = male_hair_western_08
					1 = male_hair_western_09
					1 = male_hair_western_10
					1 = male_hair_mena_01
					1 = male_hair_mena_02
					1 = male_hair_mena_03
					1 = male_hair_mena_04
					1 = male_hair_byzantine_01
					1 = male_hair_byzantine_02
					1 = male_hair_sub_saharan_01
					1 = male_hair_sub_saharan_02
					1 = male_hair_sub_saharan_03
					1 = male_hair_rtt_01
					1 = male_hair_rtt_02
					1 = male_hair_indian_01
					1 = male_hair_indian_02
					1 = male_hair_indian_03
					1 = male_hair_northern_01
					1 = male_hair_northern_02
					1 = male_hair_northern_03
					1 = male_hair_steppe_01
					1 = male_hair_steppe_02
				}

				female = {
					1 = female_hair_western_01
					1 = female_hair_western_02
					1 = female_hair_western_03
					1 = female_hair_western_04
					1 = female_hair_western_05
					1 = female_hair_western_06
					1 = female_hair_western_07
					1 = female_hair_western_08
					1 = female_hair_western_09
					1 = female_hair_western_10
					1 = female_hair_mena_01
					1 = female_hair_mena_02
					1 = female_hair_byzantine_01
					1 = female_hair_byzantine_02
					1 = female_hair_sub_saharan_01
	                1 = female_hair_sub_saharan_02
	                1 = female_hair_sub_saharan_03
					1 = female_hair_rtt_01
					1 = female_hair_rtt_02
					1 = female_hair_rtt_02_milla
					1 = female_hair_indian_01
					1 = female_hair_indian_02
					1 = female_hair_indian_03
					1 = female_hair_northern_01
					1 = female_hair_northern_02
					1 = female_hair_northern_03
					1 = female_hair_steppe_01
					1 = female_hair_steppe_02
				}
				boy = male
				girl = female
			}

			no_hairstyles = {
				index = 1
				male = {
					1 = bald
				}		   
				female = male
				boy = male
				girl = male
			}	  

			western_hairstyles_straight = {
				index = 2
				male = {
					3 = male_hair_western_01 # Bowl cut
					2 = male_hair_western_03 # Buzz cut
					3 = male_hair_western_07 # Long side part
					2 = male_hair_western_09 # Short clumpy
					1 = male_hair_byzantine_02 # Roman style
				}
				
				female = {
					3 = female_hair_western_01 # Crown braid
					3 = female_hair_western_03 # Rolled braid
					3 = female_hair_western_07 # Twin tails with ribbons
					3 = female_hair_western_08 # Twin braids tied up on head
					3 = female_hair_western_09 # Chignon
					3 = female_hair_western_10 # Single tail ribboned

				}
				boy = male
				girl = female
			}    

			western_hairstyles_wavy = {
				index = 3
				male = {
					3 = male_hair_western_02 # Medium/long wavy
					1 = male_hair_western_03 # Buzz cut
					1 = male_hair_western_04 # Fade, shaved sides
					3 = male_hair_western_05 # Medium/long wavy with fringe
					3 = male_hair_western_06 # Messy bowl
					3 = male_hair_western_07 # Long side part
					3 = male_hair_western_08 # Medium/long center part
					1 = male_hair_western_09 # Short clumpy
					3 = male_hair_mena_02 # Well kempt wavy
					1 = male_hair_byzantine_01 # Curled bowl
					1 = male_hair_byzantine_02 # Roman style
				}
				
				female = {
					3 = female_hair_western_01 # Crown braid
					3 = female_hair_western_02 # Long wavy
					3 = female_hair_western_03 # Rolled braid
					3 = female_hair_western_04 # Twin braids wavy
					3 = female_hair_western_05 # Behind head wavy
					3 = female_hair_western_06 # Tight updo with barbette
					3 = female_hair_western_07 # Twin tails with ribbons
					3 = female_hair_western_08 # Twin braids tied up on head
					3 = female_hair_western_09 # Chignon
				}
				boy = male
				girl = female
			}   

			western_hairstyles_curly = {
				index = 4
				male = {
					2 = male_hair_western_03 # Buzz cut
					2 = male_hair_mena_01 # Short curly
					2 = male_hair_mena_03 # Curly ball
					2 = male_hair_mena_04 # Medium curly
				}
				
				female = {
					3 = female_hair_western_05 # Behind head wavy
					3 = female_hair_western_06 # Tight updo with barbette
				}
				boy = male
				girl = female
			}  

			western_hairstyles_afro = {
				index = 5
				male = {
					2 = male_hair_sub_saharan_01 # Short african 
					2 = male_hair_sub_saharan_02 # Small afro
					2 = male_hair_sub_saharan_03 # Short dreads
				}
				
				female = {
					2 = female_hair_sub_saharan_01 # Medium afro
					2 = female_hair_sub_saharan_02 # Long Rasta braids
					2 = female_hair_sub_saharan_03 # Short Rasta braids
				}
				boy = male
				girl = female
			}  

			mena_hairstyles_straight = {
				index = 6
				male = {
					3 = male_hair_mena_02 # Well kempt wavy
					1 = male_hair_western_03 # Buzz cut
					3 = male_hair_western_07 # Long side part
					2 = male_hair_western_09 # Short clumpy
				}
				
				female = {
					1 = female_hair_mena_01 # Gold band and braids
				}
				boy = male
				girl = female
			}   

			mena_hairstyles_wavy = {
				index = 7
				male = {
					3 = male_hair_mena_02 # Well kempt wavy
					3 = male_hair_western_02 # Medium/long wavy
					1 = male_hair_western_03 # Buzz cut
					3 = male_hair_western_06 # Messy bowl
					1 = male_hair_western_07 # Long side part

				}
				
				female = {
					2 = female_hair_mena_01 # Gold band and braids
					2 = female_hair_mena_02 # Behind head long curly
					1 = female_hair_western_05 # Behind head wavy
				}
				boy = male
				girl = female
			}   

			mena_hairstyles_curly = {
				index = 8
				male = {
					2 = male_hair_mena_01 # Short curly
					2 = male_hair_mena_03 # Curly ball
					2 = male_hair_mena_04 # Medium curly
					1 = male_hair_western_03 # Buzz cut
				}
				
				female = {
					3 = female_hair_mena_02 # Behind head long curly
					1 = female_hair_western_05 # Behind head wavy
				}
				boy = male
				girl = female
			}   

			mena_hairstyles_afro = {
				index = 9
				male = {
					2 = male_hair_sub_saharan_01 # Short african 
					2 = male_hair_sub_saharan_02 # Small afro
					2 = male_hair_sub_saharan_03 # Short dreads
				}
				
				female = {
					2 = female_hair_sub_saharan_01 # Medium afro
					2 = female_hair_sub_saharan_02 # Long Rasta braids
					2 = female_hair_sub_saharan_03 # Short Rasta braids
				}
				boy = male
				girl = female
			}  

			byzantine_hairstyles_straight = {
				index = 10
				male = {
					3 = male_hair_byzantine_02 # Roman style
					2 = male_hair_western_01 # Bowl cut
					1 = male_hair_western_03 # Buzz cut
				}
				
				female = {
					3 = female_hair_byzantine_01 # Single tail with spiral ribbon
					3 = female_hair_byzantine_02 # Curly updo with earrings

				}
				boy = male
				girl = female
			}

			byzantine_hairstyles_wavy = {
				index = 11
				male = {
					3 = male_hair_byzantine_01 # Curled bowl
					3 = male_hair_byzantine_02 # Roman style
					1 = male_hair_western_03 # Buzz cut
					1 = male_hair_western_05 # Medium/long wavy with fringe
					2 = male_hair_western_06 # Messy bowl
					1 = male_hair_western_08 # Medium/long center part
					2 = male_hair_western_09 # Short clumpy
				}
				
				female = {
					3 = female_hair_byzantine_01 # Single tail with spiral ribbon
					3 = female_hair_byzantine_02 # Curly updo with earrings

				}
				boy = male
				girl = female
			}

			byzantine_hairstyles_curly = {
				index = 12
				male = {
					2 = male_hair_mena_01 # Short curly
					2 = male_hair_mena_03 # Curly ball
					2 = male_hair_mena_04 # Medium curly
					1 = male_hair_western_03 # Buzz cut
				}
				
				female = {
					3 = female_hair_byzantine_02 # Curly updo with earrings

				}
				boy = male
				girl = female
			}

			byzantine_hairstyles_afro = {
				index = 13
				male = {
					2 = male_hair_sub_saharan_01 # Short african 
					2 = male_hair_sub_saharan_02 # Small afro
					2 = male_hair_sub_saharan_03 # Short dreads
				}
				
				female = {
					2 = female_hair_sub_saharan_01 # Medium afro
					2 = female_hair_sub_saharan_02 # Long Rasta braids
					2 = female_hair_sub_saharan_03 # Short Rasta braids
				}
				boy = male
				girl = female
			}  

			sub_saharan_hairstyles_straight = {
				index = 14
				male = {
					2 = male_hair_western_01 # Bowl cut
					2 = male_hair_western_03 # Buzz cut
					2 = male_hair_western_07 # Long side part
					2 = male_hair_western_09 # Short clumpy
					2 = male_hair_byzantine_02 # Roman style
				}
				
				female = {
					2 = female_hair_western_01 # Crown braid
					2 = female_hair_western_03 # Rolled braid
					2 = female_hair_western_09 # Chignon
					2 = female_hair_northern_01 # Small braids and hair tied at neck
					2 = female_hair_northern_02 # Single tight braid
					2 = female_hair_northern_03 # Long straight
					2 = female_hair_mena_01 # Gold band and braids
				}
				boy = male
				girl = female
			}

			sub_saharan_hairstyles_wavy = {
				index = 15
				male = {
					2 = male_hair_western_02 # Medium/long wavy
					2 = male_hair_western_03 # Buzz cut
					2 = male_hair_western_04 # Fade, shaved sides
					2 = male_hair_western_05 # Medium/long wavy with fringe
					2 = male_hair_western_06 # Messy bowl
					2 = male_hair_western_07 # Long side part
					2 = male_hair_western_08 # Medium/long center part
					2 = male_hair_western_09 # Short clumpy
					2 = male_hair_mena_02 # Well kempt wavy
					2 = male_hair_byzantine_02 # Roman style
					2 = male_hair_northern_01 # Long wavy metal hair
				}
				
				female = {
					2 = female_hair_western_01 # Crown braid
					2 = female_hair_western_02 # Long wavy
					2 = female_hair_western_03 # Rolled braid
					2 = female_hair_western_04 # Twin braids wavy
					2 = female_hair_western_05 # Behind head wavy
					2 = female_hair_western_09 # Chignon
					2 = female_hair_mena_02 # Behind head long curly

				}
				boy = male
				girl = female
			}

			sub_saharan_hairstyles_curly = {
				index = 16
				male = {
					2 = male_hair_mena_01 # Short curly
					2 = male_hair_mena_03 # Curly ball
					2 = male_hair_mena_04 # Medium curly
					1 = male_hair_western_03 # Buzz cut
				}
				
				female = {
					2 = female_hair_western_05 # Behind head wavy
					2 = female_hair_mena_02 # Behind head long curly					
				}
				boy = male
				girl = female
			}

			sub_saharan_hairstyles_afro = {
				index = 17
				set_tags = "very_curly_hair"
				male = {
					2 = male_hair_sub_saharan_01 # Short african 
					2 = male_hair_sub_saharan_02 # Small afro
					2 = male_hair_sub_saharan_03 # Short dreads
				}
				
				female = {
					2 = female_hair_sub_saharan_01 # Medium afro
					2 = female_hair_sub_saharan_02 # Long Rasta braids
					2 = female_hair_sub_saharan_03 # Short Rasta braids
				}
				boy = male
				girl = female
			}
			
			indian_hairstyles_straight = {
				index = 18
				male = {
					#weight = <object in gfx/portrait/accessories/>
					2 = male_hair_indian_01 # Short Pompadour
					2 = male_hair_indian_03 # High man bun
					
				}

				female = {
					2 = female_hair_indian_01 # Tight updo with jewelry
					2 = female_hair_indian_02 # Braids with jewelry
					
				}
				boy = male
				girl = female
			}

			indian_hairstyles_wavy = {
				index = 19
				male = {
					#weight = <object in gfx/portrait/accessories/>
					3 = male_hair_indian_01 # Short Pompadour
					3 = male_hair_indian_02 # Pompadour with curled neck hair
					3 = male_hair_indian_03 # High man bun
					
				}

				female = {
					2 = female_hair_indian_01 # Tight updo with jewelry
					2 = female_hair_indian_02 # Braids with jewelry
					2 = female_hair_indian_03 # Let out wavy with jewelry
					
				}
				boy = male
				girl = female
			}
			
			indian_hairstyles_curly = {
				index = 20
				male = {
					#weight = <object in gfx/portrait/accessories/>
					2 = male_hair_mena_01 # Short curly
					2 = male_hair_mena_04 # Medium curly
					
				}

				female = {
					2 = female_hair_indian_03 # Let out wavy with jewelry
					
				}
				boy = male
				girl = female
			}

			indian_hairstyles_afro = {
				index = 21
				male = {
					2 = male_hair_sub_saharan_01 # Short african 
					2 = male_hair_sub_saharan_02 # Small afro
					2 = male_hair_sub_saharan_03 # Short dreads
				}
				
				female = {
					2 = female_hair_sub_saharan_01 # Medium afro
					2 = female_hair_sub_saharan_02 # Long Rasta braids
					2 = female_hair_sub_saharan_03 # Short Rasta braids
				}
				boy = male
				girl = female
			}

			northern_hairstyles_straight = {
				index = 22
				male = {
					#weight = <object in gfx/portrait/accessories/>
					3 = male_hair_northern_02 # Long partly let out with ponytail
					3 = male_hair_northern_03 # Norman style short with shaved back and sides
					2 = male_hair_western_07 # Long side part
					
				}

				female = {
					2 = female_hair_northern_01 # Small braids and hair tied at neck
					2 = female_hair_northern_02 # Single tight braid
					2 = female_hair_northern_03 # Long straight
					
				}
				boy = male
				girl = female
			}

			northern_hairstyles_wavy = {
				index = 23
				male = {
					#weight = <object in gfx/portrait/accessories/>
					2 = male_hair_northern_01 # Long wavy metal hair
					3 = male_hair_northern_02 # Long partly let out with ponytail
					3 = male_hair_northern_03 # Norman style short with shaved back and sides
					
				}

				female = {
					2 = female_hair_northern_01 # Small braids and hair tied at neck
					2 = female_hair_northern_02 # Single tight braid
					2 = female_hair_northern_03 # Long straight
					
				}
				boy = male
				girl = female
			}

			northern_hairstyles_curly = {
				index = 24
				male = {
					2 = male_hair_western_03 # Buzz cut
					2 = male_hair_mena_01 # Short curly
					2 = male_hair_mena_03 # Curly ball
					2 = male_hair_mena_04 # Medium curly
					
				}

				female = {
					3 = female_hair_western_05 # Behind head wavy
					
				}
				boy = male
				girl = female
			}

			northern_hairstyles_afro = {
				index = 25
				male = {
					2 = male_hair_sub_saharan_01 # Short african 
					2 = male_hair_sub_saharan_02 # Small afro
					2 = male_hair_sub_saharan_03 # Short dreads
				}
				
				female = {
					2 = female_hair_sub_saharan_01 # Medium afro
					2 = female_hair_sub_saharan_02 # Long Rasta braids
					2 = female_hair_sub_saharan_03 # Short Rasta braids
				}
				boy = male
				girl = female
			}

			steppe_hairstyles_straight = {
				index = 26
				male = {
					#weight = <object in gfx/portrait/accessories/>
					3 = male_hair_steppe_01 # Looped twin braids, forehead patch
					3 = male_hair_steppe_02 # Long twin tails, forward combed mohawk
					
				}

				female = {
					3 = female_hair_steppe_01 # Twin braids with ribbons and earrings
					3 = female_hair_steppe_02 # Tight with twin braids rolled up into two balls, earrings
					
				}
				boy = male
				girl = female
			}

			steppe_hairstyles_wavy = {
				index = 27
				male = {
					#weight = <object in gfx/portrait/accessories/>
					3 = male_hair_steppe_01 # Looped twin braids, forehead patch
					3 = male_hair_steppe_02 # Long twin tails, forward combed mohawk
					
				}

				female = {
					3 = female_hair_steppe_01 # Twin braids with ribbons and earrings
					3 = female_hair_steppe_02 # Tight with twin braids rolled up into two balls, earrings
					
				}
				boy = male
				girl = female
			}

			steppe_hairstyles_curly = {
				index = 28
				male = {
					#weight = <object in gfx/portrait/accessories/>
					2 = male_hair_mena_04 # Medium curly

				}

				female = {
					2 = female_hair_western_05 # Behind head wavy
					2 = female_hair_indian_03 # Let out wavy with jewelry					
				}
				boy = male
				girl = female
			}

			steppe_hairstyles_afro = {
				index = 29
				male = {
					2 = male_hair_sub_saharan_01 # Short african 
					2 = male_hair_sub_saharan_02 # Small afro
					2 = male_hair_sub_saharan_03 # Short dreads
				}
				
				female = {
					2 = female_hair_sub_saharan_01 # Medium afro
					2 = female_hair_sub_saharan_02 # Long Rasta braids
					2 = female_hair_sub_saharan_03 # Short Rasta braids
				}
				boy = male
				girl = female
			}

			catholic_devoted_hairstyles = {
				index = 30
				male = {
					2 = male_hair_western_10 # Tonsure 
				}
				
				female = {
					1 = female_hair_western_01
					1 = female_hair_western_02
					1 = female_hair_western_03
					1 = female_hair_western_04
					1 = female_hair_western_05
					1 = female_hair_western_06
					1 = female_hair_western_07
					1 = female_hair_western_08
					1 = female_hair_western_09
					1 = female_hair_western_10
				}
				boy = male
				girl = female
			} 

			western_baby_hairstyles = {
				index = 31
				male = {
					1 = male_hair_western_baby_01
				}		   
				female = {
					1 = female_hair_western_baby_01
				}	
				boy = male
				girl = female
			}	

			sub_saharan_baby_hairstyles = {
				index = 32
				male = {
					1 = male_hair_sub_saharan_01
				}		   
				female = {
					1 = female_hair_sub_saharan_child_01
					1 = female_hair_sub_saharan_01
				}	
				boy = male
				girl = female
			}

			rtt_hairstyles = {
				index = 33
				male = {
					#weight = <object in gfx/portrait/accessories/>
					1 = male_hair_rtt_01
					1 = male_hair_rtt_02
				}

				female = {
					1 = female_hair_rtt_01
					1 = female_hair_rtt_02
					1 = female_hair_rtt_02_milla
				}
				boy = male
				girl = female
			}	

			fp1_hairstyles_straight = {
				index = 34
				male = {
					2 = male_hair_fp1_01 # Medium short center part
					2 = male_hair_fp1_02 # Center part ponytail
					2 = male_hair_fp1_03 # Mohawk ish
					2 = male_hair_fp1_04 # Medium short pulled back
					2 = male_hair_fp1_05 # Long fine
					3 = male_hair_fp1_06 # Medium long side part well kempt
					2 = male_hair_fp1_07 # Medium long side part thick
					3 = male_hair_fp1_08 # Long straight with bangs as braids
					2 = male_hair_fp1_09 # Single braid in back, shaved sides
				}

				female = {
					3 = female_hair_fp1_01 # Let out but with smaller braids braided in
					2 = female_hair_fp1_02 # Very big loose braid on one shoulder
					2 = female_hair_fp1_03 # Pigtail braids
					2 = female_hair_fp1_04 # Crown braid with ribbon
					3 = female_hair_fp1_05 # Twin tails on chest, let out in back
					3 = female_hair_fp1_06 # Let out fluffy straight
					
				}
				boy = male
				girl = female
			}

			fp1_hairstyles_wavy = {
				index = 35
				male = {
					2 = male_hair_fp1_01 # Medium short center part
					2 = male_hair_fp1_02 # Center part ponytail
					2 = male_hair_fp1_03 # Mohawk ish
					2 = male_hair_fp1_04 # Medium short pulled back
					2 = male_hair_fp1_05 # Long fine
					2 = male_hair_fp1_07 # Medium long side part thick
					2 = male_hair_fp1_09 # Single braid in back, shaved sides
				}

				female = {
					2 = female_hair_fp1_02 # Very big loose braid on one shoulder
					2 = female_hair_fp1_03 # Pigtail braids
					2 = female_hair_fp1_04 # Crown braid with ribbon
					
				}
				boy = male
				girl = female
			}

			scripted_character_hairstyles_01 = { # THIS TEMPLATE SHOULD NOT BE CHANGED IN ANY WAY! If new hairstyles are added for scripted characters they should be added in a new template.
				index = 36
				male = {
					#weight = <object in gfx/portrait/accessories/>
					1 = male_hair_western_01
					1 = male_hair_western_02
					1 = male_hair_western_03
					1 = male_hair_western_04
					1 = male_hair_western_05
					1 = male_hair_western_06
					1 = male_hair_western_07
					1 = male_hair_western_08
					1 = male_hair_western_09
					1 = male_hair_western_10
					1 = male_hair_mena_01
					1 = male_hair_mena_02
					1 = male_hair_mena_03
					1 = male_hair_mena_04
					1 = male_hair_byzantine_01
					1 = male_hair_byzantine_02
					1 = male_hair_sub_saharan_01
					1 = male_hair_sub_saharan_02
					1 = male_hair_sub_saharan_03
					1 = male_hair_rtt_01
					1 = male_hair_rtt_02
					1 = male_hair_indian_01
					1 = male_hair_indian_02
					1 = male_hair_indian_03
					1 = male_hair_northern_01
					1 = male_hair_northern_02
					1 = male_hair_northern_03
					1 = male_hair_steppe_01
					1 = male_hair_steppe_02
					1 = male_hair_fp1_01
					1 = male_hair_fp1_02
					1 = male_hair_fp1_03
					1 = male_hair_fp1_04
					1 = male_hair_fp1_05
					1 = male_hair_fp1_06
					1 = male_hair_fp1_07
					1 = male_hair_fp1_08
					1 = male_hair_fp1_09
				}

				female = {
					1 = female_hair_western_01
					1 = female_hair_western_02
					1 = female_hair_western_03
					1 = female_hair_western_04
					1 = female_hair_western_05
					1 = female_hair_western_06
					1 = female_hair_western_07
					1 = female_hair_western_08
					1 = female_hair_western_09
					1 = female_hair_western_10
					1 = female_hair_mena_01
					1 = female_hair_mena_02
					1 = female_hair_byzantine_01
					1 = female_hair_byzantine_02
					1 = female_hair_sub_saharan_01
	                1 = female_hair_sub_saharan_02
	                1 = female_hair_sub_saharan_03
					1 = female_hair_rtt_01
					1 = female_hair_rtt_02
					1 = female_hair_rtt_02_milla
					1 = female_hair_indian_01
					1 = female_hair_indian_02
					1 = female_hair_indian_03
					1 = female_hair_northern_01
					1 = female_hair_northern_02
					1 = female_hair_northern_03
					1 = female_hair_steppe_01
					1 = female_hair_steppe_02
					1 = female_hair_fp1_01
					1 = female_hair_fp1_02
					1 = female_hair_fp1_03
					1 = female_hair_fp1_04
					1 = female_hair_fp1_05
					1 = female_hair_fp1_06
				}
				boy = male
				girl = female
			}

			# Harald Fairhair's vow-hair.
			#scripted_character_hairstyles_02 = {
			#	index = 37
			#	male = { 1 = male_hair_northern_01 }		   
			#	female = male
			#	boy = male
			#	girl = male
			#}
		}

	}

}